<?xml version="1.0" encoding="utf-8"?>
<!-- Generator: Adobe Illustrator 16.0.0, SVG Export Plug-In . SVG Version: 6.00 Build 0)  -->
<!DOCTYPE svg PUBLIC "-//W3C//DTD SVG 1.1//EN" "http://www.w3.org/Graphics/SVG/1.1/DTD/svg11.dtd">
<svg version="1.1" id="Layer_1" xmlns="http://www.w3.org/2000/svg" xmlns:xlink="http://www.w3.org/1999/xlink" x="0px" y="0px"
	 width="40px" height="40px" viewBox="0 0 40 40" enable-background="new 0 0 40 40" xml:space="preserve">
<g>
	<path fill="#0A0607" d="M17.805,31.686c-7.875,0-14.282-6.408-14.282-14.283c0-7.875,6.407-14.282,14.282-14.282
		s14.283,6.407,14.283,14.282C32.088,25.277,25.68,31.686,17.805,31.686z M17.805,7.208c-5.622,0-10.194,4.573-10.194,10.194
		c0,5.621,4.573,10.195,10.194,10.195C23.426,27.598,28,23.023,28,17.403C28,11.782,23.426,7.208,17.805,7.208z"/>
	<path fill="#0A0607" d="M34.434,36.879c-0.523,0-1.045-0.199-1.445-0.6l-8.385-8.385c-0.799-0.797-0.799-2.092,0-2.891
		c0.799-0.797,2.092-0.797,2.891,0l8.385,8.387c0.799,0.797,0.799,2.092,0,2.889C35.48,36.68,34.957,36.879,34.434,36.879z"/>
</g>
</svg>
