<?xml version="1.0" encoding="utf-8"?>
<!-- Generator: Adobe Illustrator 16.0.0, SVG Export Plug-In . SVG Version: 6.00 Build 0)  -->
<!DOCTYPE svg PUBLIC "-//W3C//DTD SVG 1.1//EN" "http://www.w3.org/Graphics/SVG/1.1/DTD/svg11.dtd">
<svg version="1.1" id="Layer_1" xmlns="http://www.w3.org/2000/svg" xmlns:xlink="http://www.w3.org/1999/xlink" x="0px" y="0px"
	 width="40px" height="40px" viewBox="0 0 40 40" enable-background="new 0 0 40 40" xml:space="preserve">
<path fill="#fff" d="M24.886,18.276c1.037,2.722-0.328,5.768-3.049,6.807c-2.719,1.037-5.768-0.327-6.805-3.047
	c-1.038-2.721,0.328-5.769,3.047-6.806C20.802,14.191,23.849,15.555,24.886,18.276z M12.39,4.963
	c-0.854,0.327-0.654,0.997-0.299,2.242c0.361,1.242,0.408,2.431-0.488,3.323c-0.178,0.157-0.348,0.311-0.514,0.473
	c-0.012,0.01-0.019,0.01-0.03,0.018c-0.949,0.854-2.134,0.74-3.357,0.313c-1.224-0.429-1.883-0.665-2.255,0.169
	c-0.374,0.828-0.123,0.265-0.721,1.608c-0.006,0.015-0.01,0.022-0.018,0.039c-0.602,1.341-0.352,0.778-0.721,1.604
	c-0.373,0.836,0.24,1.169,1.377,1.797c1.126,0.622,1.992,1.422,2,2.671c-0.014,0.234-0.021,0.471-0.021,0.707
	c-0.002,0.019-0.012,0.027-0.012,0.049c-0.064,1.274-0.985,2.032-2.154,2.595C4.01,23.132,3.374,23.433,3.7,24.284
	c0.323,0.847,0.103,0.271,0.629,1.646c0.004,0.014,0.008,0.024,0.014,0.039c0.521,1.377,0.303,0.8,0.627,1.644
	c0.328,0.856,0.999,0.658,2.244,0.299c1.239-0.356,2.425-0.405,3.321,0.485c0.153,0.177,0.309,0.352,0.478,0.516
	c0.01,0.012,0.01,0.022,0.021,0.034c0.849,0.944,0.738,2.134,0.309,3.353c-0.429,1.226-0.664,1.883,0.166,2.258
	c0.83,0.369,0.268,0.119,1.609,0.723c0.01,0.004,0.014,0.008,0.023,0.012c0.004,0.002,0.008,0.002,0.014,0.004
	c1.342,0.602,0.779,0.348,1.609,0.721c0.832,0.37,1.166-0.243,1.795-1.379c0.619-1.124,1.427-1.997,2.684-2.001
	c0.228,0.015,0.456,0.024,0.686,0.021c0.023,0.004,0.033,0.014,0.06,0.014c1.269,0.066,2.029,0.986,2.591,2.154
	c0.562,1.167,0.861,1.801,1.715,1.478c0.846-0.325,0.272-0.106,1.646-0.63c0.009-0.002,0.015-0.004,0.022-0.008
	c0.006-0.002,0.01-0.004,0.014-0.006c1.374-0.523,0.798-0.309,1.646-0.627c0.853-0.326,0.656-0.998,0.295-2.246
	c-0.361-1.242-0.407-2.436,0.5-3.33c0.168-0.152,0.338-0.303,0.498-0.461c0.013-0.014,0.022-0.01,0.037-0.023
	c0.943-0.851,2.133-0.736,3.356-0.31s1.882,0.664,2.254-0.168c0.369-0.828,0.118-0.265,0.724-1.606
	c0.004-0.01,0.006-0.016,0.008-0.024c0.004-0.005,0.004-0.012,0.007-0.014c0.6-1.344,0.347-0.78,0.718-1.608
	c0.371-0.832-0.241-1.167-1.377-1.795c-1.131-0.623-2.004-1.43-2.004-2.694c0.014-0.225,0.02-0.447,0.02-0.673
	c0.004-0.024,0.015-0.036,0.015-0.063c0.065-1.271,0.986-2.029,2.153-2.588c1.166-0.565,1.799-0.864,1.477-1.716
	c-0.326-0.847-0.107-0.271-0.629-1.646c-0.003-0.008-0.006-0.015-0.01-0.024c-0.002-0.004-0.004-0.01-0.006-0.014
	c-0.525-1.373-0.307-0.796-0.627-1.646c-0.327-0.85-0.996-0.653-2.246-0.294c-1.244,0.361-2.438,0.407-3.329-0.499
	c-0.002-0.002-0.005-0.002-0.005-0.002c-0.152-0.168-0.301-0.337-0.458-0.496c-0.013-0.014-0.013-0.024-0.024-0.038
	c-0.852-0.944-0.74-2.132-0.311-3.355c0.427-1.223,0.661-1.881-0.169-2.256c-0.828-0.371-0.269-0.12-1.606-0.722
	c-0.012-0.004-0.02-0.008-0.033-0.014c0-0.002-0.002-0.002-0.002-0.002c-1.346-0.603-0.784-0.347-1.611-0.72
	c-0.834-0.373-1.168,0.243-1.795,1.376c-0.619,1.129-1.43,2.003-2.69,2.003c-0.225-0.014-0.451-0.02-0.682-0.02
	c-0.024-0.004-0.032-0.014-0.056-0.014c-1.273-0.066-2.033-0.985-2.596-2.154c-0.562-1.169-0.862-1.799-1.715-1.476
	c-0.855,0.327-0.252,0.098-1.684,0.644C12.663,4.861,13.237,4.642,12.39,4.963z"/>
</svg>
