<?xml version="1.0" encoding="utf-8"?>
<!-- Generator: Adobe Illustrator 16.0.0, SVG Export Plug-In . SVG Version: 6.00 Build 0)  -->
<!DOCTYPE svg PUBLIC "-//W3C//DTD SVG 1.1//EN" "http://www.w3.org/Graphics/SVG/1.1/DTD/svg11.dtd">
<svg version="1.1" id="Layer_1" xmlns="http://www.w3.org/2000/svg" xmlns:xlink="http://www.w3.org/1999/xlink" x="0px" y="0px"
	 width="60px" height="60px" viewBox="0 0 60 60" enable-background="new 0 0 60 60" xml:space="preserve">
<path fill="#FFFFFF" d="M42.014,35.719c-1.744,0-3.324,0.668-4.521,1.753L24.63,30.913c0.052-0.334,0.085-0.676,0.085-1.025
	c0-0.198-0.013-0.39-0.031-0.583l12.988-6.618c1.174,0.991,2.686,1.592,4.342,1.592c3.715,0,6.727-3.011,6.727-6.726
	c0-3.715-3.012-6.729-6.727-6.729s-6.729,3.011-6.729,6.729c0,0.205,0.012,0.408,0.031,0.608l-12.968,6.611
	c-1.173-1.001-2.695-1.609-4.358-1.609c-3.715,0-6.729,3.011-6.729,6.729c0,3.714,3.015,6.728,6.729,6.728
	c1.499,0,2.878-0.495,3.994-1.324l13.315,6.791c-0.004,0.119-0.018,0.238-0.018,0.361c0,3.715,3.012,6.729,6.729,6.729
	c3.715,0,6.727-3.012,6.727-6.729C48.74,38.729,45.729,35.719,42.014,35.719z"/>
</svg>
