<?xml version="1.0" encoding="utf-8"?>
<!-- Generator: Adobe Illustrator 16.0.0, SVG Export Plug-In . SVG Version: 6.00 Build 0)  -->
<!DOCTYPE svg PUBLIC "-//W3C//DTD SVG 1.1//EN" "http://www.w3.org/Graphics/SVG/1.1/DTD/svg11.dtd">
<svg version="1.1" id="Layer_1" xmlns="http://www.w3.org/2000/svg" xmlns:xlink="http://www.w3.org/1999/xlink" x="0px" y="0px"
	 width="50px" height="50px" viewBox="0 0 50 50" enable-background="new 0 0 50 50" xml:space="preserve">
<polygon fill="#FFFFFF" points="35.348,11.977 35.348,35.17 13.938,35.17 13.938,14.831 23.215,14.831 23.215,24.821 17.848,24.821 
	24.5,32.193 31.982,24.821 26.784,24.821 26.784,11.977 11.084,11.977 11.084,38.023 38.915,38.023 38.915,11.977 "/>
</svg>
